…
I discovered these links (ESRI Shapefile and MapInfo) at this site: <https://data.gov.au/dataset/psma-administrative-boundaries> . Build a data frame of the available file names, it's a recursive tree of directories but we only need the ".shp$" values.

``` r
library(dplyr)
fs <- tibble::tibble(fullname = list.files(".", recursive = TRUE, pattern = "shp$"))

## keep file and fullname, a habit of mine
fs <- fs %>% dplyr::mutate(file = basename(fullname)) %>% dplyr::select(file, fullname)

fs 
#> # A tibble: 261 x 2
#>    file                           fullname                                
#>    <chr>                          <chr>                                   
#>  1 ACT_GCCSA_2011_POLYGON_shp.shp AUG17_AdminBounds_ESRIShapefileorDBFfil…
#>  2 ACT_MB_2011_POLYGON_shp.shp    AUG17_AdminBounds_ESRIShapefileorDBFfil…
#>  3 ACT_SA1_2011_POLYGON_shp.shp   AUG17_AdminBounds_ESRIShapefileorDBFfil…
#>  4 ACT_SA2_2011_POLYGON_shp.shp   AUG17_AdminBounds_ESRIShapefileorDBFfil…
#>  5 ACT_SA3_2011_POLYGON_shp.shp   AUG17_AdminBounds_ESRIShapefileorDBFfil…
#>  6 ACT_SA4_2011_POLYGON_shp.shp   AUG17_AdminBounds_ESRIShapefileorDBFfil…
#>  7 NSW_GCCSA_2011_POLYGON_shp.shp AUG17_AdminBounds_ESRIShapefileorDBFfil…
#>  8 NSW_MB_2011_POLYGON_shp.shp    AUG17_AdminBounds_ESRIShapefileorDBFfil…
#>  9 NSW_SA1_2011_POLYGON_shp.shp   AUG17_AdminBounds_ESRIShapefileorDBFfil…
#> 10 NSW_SA2_2011_POLYGON_shp.shp   AUG17_AdminBounds_ESRIShapefileorDBFfil…
#> # ... with 251 more rows
…
